Catálogo de patentes aduanales,,,,
Fecha inicio de vigencia,Fecha fin de vigencia,Versión,Revisión,
1/1/17,,3.0,0,
,,,,
C_PatenteAduanal,Inicio de vigencia de la patente,Fin de vigencia de la patente,,
0,01/01/2000,,,
74,03/07/2001,,,
101,21/05/2001,,,
115,17/05/2001,,,
122,14/05/2001,,,
123,16/05/2001,,,
149,21/05/2001,,,
150,22/05/2001,,,
182,21/05/2001,,,
188,23/05/2001,,,
203,18/05/2001,,,
205,21/05/2001,,,
227,17/05/2001,,,
246,21/05/2001,,,
247,23/05/2001,,,
271,31/07/2001,,,
273,11/05/2001,,,
276,21/06/2001,,,
289,17/05/2001,,,
294,21/05/2001,,,
309,21/05/2001,,,
310,23/05/2001,,,
312,14/05/2001,,,
316,21/05/2001,,,
318,31/07/2001,,,
321,18/05/2001,,,
323,18/05/2001,,,
327,21/05/2001,,,
328,18/05/2001,,,
334,14/05/2001,,,
339,15/05/2001,,,
347,21/05/2001,,,
348,15/05/2001,,,
350,17/05/2001,,,
361,12/06/2001,,,
368,15/05/2001,,,
381,16/05/2001,,,
382,17/05/2001,,,
387,22/05/2001,,,
388,17/05/2001,,,
389,21/05/2001,,,
390,01/08/2001,,,
394,18/05/2001,,,
398,15/06/2001,,,
400,22/05/2001,,,
401,12/06/2001,,,
403,16/05/2001,,,
404,22/05/2001,,,
406,21/05/2001,,,
407,18/05/2001,,,
411,31/07/2001,,,
412,08/05/2001,,,
413,15/05/2001,,,
414,21/05/2001,,,
418,18/05/2001,,,
419,17/05/2001,,,
420,16/05/2001,,,
424,21/05/2001,,,
425,16/05/2001,,,
426,21/05/2001,,,
427,16/05/2001,,,
428,08/06/2001,,,
429,18/05/2001,,,
430,22/05/2001,,,
432,18/06/2001,,,
438,15/05/2001,,,
440,18/05/2001,,,
441,19/10/2001,,,
442,22/05/2001,,,
444,18/05/2001,,,
445,18/05/2001,,,
447,23/05/2001,,,
449,21/05/2001,,,
451,11/05/2001,,,
454,29/06/2001,,,
457,21/05/2001,,,
460,21/05/2001,,,
462,15/05/2001,,,
464,21/05/2001,,,
465,17/05/2001,,,
467,15/05/2001,,,
469,21/05/2001,,,
472,16/05/2001,,,
474,01/07/2002,,,
476,22/05/2001,,,
477,18/05/2001,,,
478,22/05/2001,,,
480,14/05/2001,,,
481,21/05/2001,,,
482,15/05/2001,,,
483,15/05/2001,,,
485,18/05/2001,,,
486,18/05/2001,,,
487,22/05/2001,,,
489,18/05/2001,,,
491,18/05/2001,,,
492,14/05/2001,,,
493,21/05/2001,,,
494,23/08/2001,,,
496,18/05/2001,,,
498,23/05/2001,,,
499,15/05/2001,,,
500,14/05/2001,,,
501,16/05/2001,,,
503,15/05/2001,,,
504,11/05/2001,,,
506,14/05/2001,,,
508,21/05/2001,,,
509,23/05/2001,,,
510,18/05/2001,,,
512,18/05/2001,,,
513,17/05/2001,,,
519,12/06/2001,,,
520,21/05/2001,,,
521,17/05/2001,,,
522,15/05/2001,,,
523,17/05/2001,,,
524,23/05/2001,,,
525,14/05/2001,,,
526,17/05/2001,,,
527,18/05/2001,,,
528,17/05/2001,,,
529,18/06/2001,,,
531,21/05/2001,,,
532,15/05/2001,,,
534,14/05/2001,,,
535,01/08/2001,,,
537,17/05/2001,,,
538,21/05/2001,,,
539,18/05/2001,,,
540,21/05/2001,,,
544,22/05/2001,,,
546,21/05/2001,,,
547,21/06/2001,,,
548,18/05/2001,,,
549,15/05/2001,,,
551,16/05/2001,,,
552,18/05/2001,,,
553,17/05/2001,,,
554,22/05/2001,,,
555,03/09/2001,,,
556,17/05/2001,,,
557,16/05/2001,,,
558,23/05/2001,,,
559,17/05/2001,,,
562,21/05/2001,,,
563,21/05/2001,,,
565,23/05/2001,,,
566,21/05/2001,,,
569,22/05/2001,,,
570,01/08/2001,,,
571,14/05/2001,,,
572,22/05/2001,,,
573,15/06/2001,,,
574,21/05/2001,,,
575,23/05/2001,,,
576,16/05/2001,,,
578,14/05/2001,,,
579,17/05/2001,,,
580,18/05/2001,,,
581,14/05/2001,,,
582,15/05/2001,,,
584,14/05/2001,,,
586,21/05/2001,,,
587,16/05/2001,,,
588,21/05/2001,,,
589,18/05/2001,,,
590,14/05/2001,,,
592,14/05/2001,,,
595,12/06/2001,,,
596,18/05/2001,,,
597,21/05/2001,,,
598,18/05/2001,,,
599,21/05/2001,,,
600,14/05/2001,,,
601,16/05/2001,,,
604,15/05/2001,,,
606,08/06/2001,,,
607,21/05/2001,,,
608,15/05/2001,,,
609,18/05/2001,,,
610,16/05/2001,,,
611,14/05/2001,,,
613,14/05/2001,,,
614,16/05/2001,,,
615,18/05/2001,,,
617,29/06/2001,,,
619,17/05/2001,,,
620,15/05/2001,,,
622,12/06/2001,,,
624,15/05/2001,,,
625,18/05/2001,,,
626,09/04/2003,,,
627,17/05/2001,,,
628,21/05/2001,,,
629,08/06/2001,,,
630,14/05/2001,,,
631,11/05/2001,,,
632,22/05/2001,,,
633,18/05/2001,,,
634,21/05/2001,,,
636,28/10/2002,,,
637,18/05/2001,,,
638,16/05/2001,,,
639,23/05/2001,,,
640,21/05/2001,,,
641,16/05/2001,,,
643,18/05/2001,,,
644,21/06/2001,,,
645,22/05/2001,,,
646,18/05/2001,,,
647,15/06/2001,,,
648,18/05/2001,,,
649,17/05/2001,,,
651,17/05/2001,,,
652,16/05/2001,,,
653,21/05/2001,,,
654,21/05/2001,,,
655,11/05/2001,,,
656,11/05/2001,,,
657,18/05/2001,,,
659,16/05/2001,,,
661,14/05/2001,,,
662,17/05/2001,,,
663,23/05/2001,,,
664,18/05/2001,,,
665,14/05/2001,,,
666,17/05/2001,,,
667,11/05/2001,,,
668,17/05/2001,,,
669,21/05/2001,,,
670,21/05/2001,,,
671,18/05/2001,,,
672,16/05/2001,,,
673,14/05/2001,,,
674,17/05/2001,,,
675,11/05/2001,,,
676,15/05/2001,,,
677,21/05/2001,,,
678,11/05/2001,,,
679,21/05/2001,,,
680,14/05/2001,,,
681,22/05/2001,,,
682,21/05/2001,,,
683,16/05/2001,,,
684,21/05/2001,,,
685,16/05/2001,,,
686,17/05/2001,,,
687,18/05/2001,,,
688,28/06/2002,,,
689,17/05/2001,,,
690,21/05/2001,,,
691,18/05/2001,,,
692,21/05/2001,,,
693,16/05/2001,,,
695,17/05/2001,,,
696,17/05/2001,,,
697,18/05/2001,,,
699,15/05/2001,,,
700,14/05/2001,,,
701,14/05/2001,,,
702,21/05/2001,,,
705,21/05/2001,,,
706,21/05/2001,,,
707,17/05/2001,,,
708,16/05/2001,,,
709,18/05/2001,,,
710,18/05/2001,,,
711,14/05/2001,,,
712,21/05/2001,,,
713,21/05/2001,,,
714,08/05/2001,,,
715,15/05/2001,,,
716,18/05/2001,,,
717,22/05/2001,,,
718,15/05/2001,,,
719,21/05/2001,,,
720,21/05/2001,,,
721,23/05/2001,,,
722,16/05/2001,,,
723,15/05/2001,,,
724,21/05/2001,,,
725,15/05/2001,,,
726,14/06/2001,,,
727,21/05/2001,,,
728,21/05/2001,,,
729,23/05/2001,,,
731,15/05/2001,,,
732,21/05/2001,,,
733,22/05/2001,,,
734,21/05/2001,,,
735,21/05/2001,,,
736,18/05/2001,,,
737,11/05/2001,,,
738,23/05/2001,,,
739,11/05/2001,,,
740,21/05/2001,,,
741,16/05/2001,,,
742,18/05/2001,,,
743,18/05/2001,,,
744,22/05/2001,,,
745,18/05/2001,,,
746,21/06/2001,,,
747,17/05/2001,,,
748,21/05/2001,,,
749,18/05/2001,,,
750,14/05/2001,,,
751,15/05/2001,,,
752,21/05/2001,,,
753,21/05/2001,,,
754,17/05/2001,,,
755,15/05/2001,,,
756,15/05/2001,,,
757,15/05/2001,,,
758,14/05/2001,,,
760,14/05/2001,,,
761,16/05/2001,,,
762,11/05/2001,,,
763,21/05/2001,,,
764,14/05/2001,,,
765,18/05/2001,,,
766,24/05/2001,,,
767,23/05/2001,,,
768,14/05/2001,,,
769,15/05/2001,,,
770,21/05/2001,,,
771,21/05/2001,,,
772,16/05/2001,,,
773,17/05/2001,,,
774,21/05/2001,,,
775,06/09/2001,,,
776,18/05/2001,,,
777,21/05/2001,,,
778,17/05/2001,,,
779,21/05/2001,,,
780,16/05/2001,,,
781,21/05/2001,,,
782,23/05/2001,,,
783,11/05/2001,,,
784,15/05/2001,,,
785,16/05/2001,,,
786,18/05/2001,,,
787,18/05/2001,,,
788,18/05/2001,,,
790,15/05/2001,,,
792,15/05/2001,,,
794,22/05/2001,,,
795,21/05/2001,,,
796,14/05/2001,,,
797,17/05/2001,,,
798,16/05/2001,,,
799,18/05/2001,,,
800,21/05/2001,,,
801,23/05/2001,,,
803,16/05/2001,,,
804,17/05/2001,,,
805,29/05/2002,,,
806,07/05/2001,,,
807,14/05/2001,,,
808,17/05/2001,,,
809,21/05/2001,,,
810,18/05/2001,,,
811,21/05/2001,,,
812,15/05/2001,,,
813,21/05/2001,,,
814,14/05/2001,,,
815,23/05/2001,,,
816,23/05/2001,,,
817,16/05/2001,,,
818,17/05/2001,,,
819,15/05/2001,,,
820,15/05/2001,,,
821,16/05/2001,,,
822,14/05/2001,,,
823,21/05/2001,,,
825,21/05/2001,,,
828,14/05/2001,,,
829,15/05/2001,,,
830,23/05/2001,,,
831,10/06/2002,,,
832,21/05/2001,,,
833,22/05/2001,,,
834,14/05/2001,,,
835,17/05/2001,,,
836,15/05/2001,,,
837,21/05/2001,,,
838,21/05/2001,,,
839,10/09/2002,,,
840,17/05/2001,,,
841,27/11/2001,,,
842,11/05/2001,,,
843,23/05/2001,,,
844,21/05/2001,,,
845,15/05/2001,,,
846,15/05/2001,,,
847,18/05/2001,,,
848,15/05/2001,,,
849,23/05/2001,,,
850,15/05/2001,,,
851,23/05/2001,,,
852,22/05/2001,,,
853,18/05/2001,,,
854,17/05/2001,,,
855,15/05/2001,,,
856,18/05/2001,,,
857,15/05/2001,,,
858,21/05/2001,,,
859,17/05/2001,,,
860,21/05/2001,,,
862,15/05/2001,,,
863,21/05/2001,,,
864,21/05/2001,,,
867,23/05/2001,,,
868,16/05/2001,,,
869,15/05/2001,,,
870,18/05/2001,,,
871,17/05/2001,,,
872,10/06/2002,,,
873,22/05/2001,,,
875,17/05/2001,,,
876,21/05/2001,,,
877,16/05/2001,,,
878,07/05/2001,,,
879,21/05/2001,,,
880,11/05/2001,,,
881,21/05/2001,,,
882,17/05/2001,,,
883,17/05/2001,,,
884,21/05/2001,,,
885,21/05/2001,,,
886,22/05/2001,,,
887,21/05/2001,,,
888,23/05/2001,,,
889,18/05/2001,,,
890,16/05/2001,,,
891,17/05/2001,,,
892,21/05/2001,,,
895,17/05/2001,,,
896,18/05/2001,,,
897,14/05/2001,,,
898,14/05/2001,,,
899,21/05/2001,,,
900,16/05/2001,,,
901,18/05/2001,,,
902,15/05/2001,,,
903,18/05/2001,,,
904,18/05/2001,,,
905,15/05/2001,,,
906,23/05/2001,,,
907,15/05/2001,,,
908,18/05/2001,,,
909,16/05/2001,,,
910,17/05/2001,,,
911,15/05/2001,,,
912,18/05/2001,,,
913,21/05/2001,,,
914,08/05/2001,,,
915,07/05/2001,,,
916,21/05/2001,,,
917,16/05/2001,,,
918,23/05/2001,,,
919,22/05/2001,,,
920,16/05/2001,,,
921,16/05/2001,,,
922,14/05/2001,,,
925,14/05/2001,,,
926,21/05/2001,,,
927,22/05/2001,,,
928,18/05/2001,,,
929,22/05/2001,,,
930,18/05/2001,,,
931,18/05/2001,,,
932,17/05/2001,,,
933,22/05/2001,,,
934,14/05/2001,,,
935,14/05/2001,,,
936,14/05/2001,,,
937,14/05/2001,,,
938,17/05/2001,,,
939,18/05/2001,,,
940,14/05/2001,,,
941,14/05/2001,,,
942,14/05/2001,,,
943,14/05/2001,,,
944,16/05/2001,,,
945,15/05/2001,,,
946,17/05/2001,,,
947,16/05/2001,,,
948,18/05/2001,,,
949,21/05/2001,,,
950,17/05/2001,,,
951,14/05/2001,,,
952,22/05/2001,,,
953,21/05/2001,,,
954,22/05/2001,,,
955,21/05/2001,,,
956,21/05/2001,,,
957,21/05/2001,,,
958,11/05/2001,,,
959,16/05/2001,,,
960,21/05/2001,,,
961,15/05/2001,,,
962,03/09/2001,,,
963,23/05/2001,,,
964,21/05/2001,,,
965,21/05/2001,,,
966,16/05/2001,,,
967,21/05/2001,,,
968,21/05/2001,,,
969,16/05/2001,,,
970,22/05/2001,,,
971,21/05/2001,,,
972,16/05/2001,,,
973,14/05/2001,,,
974,23/05/2001,,,
975,16/05/2001,,,
976,21/05/2001,,,
977,15/05/2001,,,
978,21/05/2001,,,
979,21/05/2001,,,
980,23/08/2001,,,
981,21/05/2001,,,
982,07/05/2001,,,
983,22/05/2001,,,
984,16/05/2001,,,
985,16/08/2002,,,
986,14/05/2001,,,
987,15/05/2001,,,
988,18/05/2001,,,
989,21/05/2001,,,
990,17/05/2001,,,
991,21/05/2001,,,
992,16/05/2001,,,
993,14/05/2001,,,
994,14/05/2001,,,
995,15/05/2001,,,
997,17/05/2001,,,
999,14/05/2001,,,
1000,14/05/2001,,,
1001,21/05/2001,,,
1002,29/05/2002,,,
1003,15/05/2001,,,
1004,23/05/2001,,,
1005,18/05/2001,,,
1006,16/05/2001,,,
1007,18/05/2001,,,
1008,16/05/2001,,,
1009,14/05/2001,,,
1010,18/05/2001,,,
1011,21/05/2001,,,
1012,09/12/2002,,,
1013,21/05/2001,,,
1014,21/05/2001,,,
1015,18/05/2001,,,
1016,18/05/2001,,,
1017,18/05/2001,,,
1018,15/05/2001,,,
1019,14/05/2001,,,
1020,15/05/2001,,,
1021,22/05/2001,,,
1022,16/05/2001,,,
1023,21/05/2001,,,
1024,21/05/2001,,,
1025,14/05/2001,,,
1026,18/05/2001,,,
1027,11/05/2001,,,
1028,17/05/2001,,,
1029,18/05/2001,,,
1030,18/05/2001,,,
1031,21/05/2001,,,
1032,17/05/2001,,,
1033,18/05/2001,,,
1034,16/05/2001,,,
1035,18/05/2001,,,
1036,11/05/2001,,,
1037,21/05/2001,,,
1038,18/05/2001,,,
1039,17/05/2001,,,
1040,16/05/2001,,,
1041,11/05/2001,,,
1042,21/05/2001,,,
1043,17/05/2001,,,
1044,21/05/2001,,,
1045,17/05/2001,,,
1046,15/05/2001,,,
1047,17/05/2001,,,
1048,15/05/2001,,,
1049,21/05/2001,,,
1050,11/05/2001,,,
1051,18/05/2001,,,
1052,18/05/2001,,,
1054,14/05/2001,,,
1055,17/05/2001,,,
1056,18/05/2001,,,
1057,14/05/2001,,,
1058,21/05/2001,,,
1059,23/05/2001,,,
1060,21/05/2001,,,
1061,22/05/2001,,,
1062,15/05/2001,,,
1063,15/05/2001,,,
1064,16/05/2001,,,
1065,16/05/2001,,,
1066,18/05/2001,,,
1067,17/05/2001,,,
1068,17/05/2001,,,
1069,18/05/2001,,,
1070,18/05/2001,,,
1071,17/05/2001,,,
1072,17/05/2001,,,
1073,17/05/2001,,,
1074,21/05/2001,,,
1075,18/05/2001,,,
1076,17/05/2001,,,
1077,17/05/2001,,,
1078,18/05/2001,,,
1079,17/05/2001,,,
1080,14/05/2001,,,
1081,21/05/2001,,,
1082,17/05/2001,,,
1084,21/05/2001,,,
1085,11/05/2001,,,
1086,17/05/2001,,,
1087,22/05/2001,,,
1088,16/05/2001,,,
1089,21/05/2001,,,
1090,29/05/2002,,,
1092,14/05/2001,,,
1094,17/05/2001,,,
1095,22/05/2001,,,
1096,15/05/2001,,,
1097,21/05/2001,,,
1098,21/05/2001,,,
1099,18/05/2001,,,
1100,15/05/2001,,,
1102,18/05/2001,,,
1103,16/05/2001,,,
1104,17/05/2001,,,
1105,15/05/2001,,,
1106,17/05/2001,,,
1107,22/05/2001,,,
1108,15/05/2001,,,
1109,17/05/2001,,,
1111,14/05/2001,,,
1112,24/05/2001,,,
1113,17/05/2001,,,
1114,16/05/2001,,,
1115,11/05/2001,,,
1116,21/05/2001,,,
1117,11/05/2001,,,
1120,15/05/2001,,,
1121,11/05/2001,,,
1122,07/05/2001,,,
1123,15/05/2001,,,
1124,21/05/2001,,,
1125,17/05/2001,,,
1126,21/05/2001,,,
1127,11/05/2001,,,
1128,11/05/2001,,,
1129,14/05/2001,,,
1130,17/05/2001,,,
1132,17/05/2001,,,
1136,14/05/2001,,,
1137,17/05/2001,,,
1138,15/05/2001,,,
1139,17/05/2001,,,
1141,14/05/2001,,,
1142,31/03/2003,,,
1144,18/05/2001,,,
1145,14/05/2001,,,
1148,07/05/2001,,,
1149,18/05/2001,,,
1150,07/05/2001,,,
1152,17/05/2001,,,
1153,21/05/2001,,,
1154,21/05/2001,,,
1155,07/05/2001,,,
1156,18/05/2001,,,
1157,23/05/2001,,,
1158,16/05/2001,,,
1159,18/05/2001,,,
1160,14/05/2001,,,
1161,11/05/2001,,,
1162,18/05/2001,,,
1163,11/05/2001,,,
1164,16/05/2001,,,
1165,18/05/2001,,,
1166,16/05/2001,,,
1167,17/05/2001,,,
1168,17/05/2001,,,
1169,22/05/2001,,,
1170,18/05/2001,,,
1171,21/05/2001,,,
1172,18/05/2001,,,
1173,18/05/2001,,,
1174,11/05/2001,,,
1175,16/05/2001,,,
1176,18/05/2001,,,
1177,18/05/2001,,,
1178,17/05/2001,,,
1179,14/05/2001,,,
1181,14/05/2001,,,
1182,22/05/2001,,,
1186,21/05/2001,,,
1187,21/05/2001,,,
1188,17/05/2001,,,
1189,21/05/2001,,,
1190,21/05/2001,,,
1191,22/05/2001,,,
1192,24/05/2001,,,
1193,18/05/2001,,,
1194,17/05/2001,,,
1195,17/05/2001,,,
1196,22/05/2001,,,
1197,16/05/2001,,,
1198,16/05/2001,,,
1199,21/05/2001,,,
1200,16/05/2001,,,
1201,16/05/2001,,,
1202,21/05/2001,,,
1203,15/05/2001,,,
1204,18/05/2001,,,
1205,17/05/2001,,,
1206,17/05/2001,,,
1207,21/05/2001,,,
1208,22/05/2001,,,
1209,14/05/2001,,,
1210,17/05/2001,,,
1211,18/05/2001,,,
1212,18/05/2001,,,
1213,21/05/2001,,,
1214,21/05/2001,,,
1215,15/05/2001,,,
1216,14/05/2001,,,
1217,18/05/2001,,,
1218,18/05/2001,,,
1219,21/05/2001,,,
1220,16/05/2001,,,
1221,16/05/2001,,,
1222,15/05/2001,,,
1223,13/03/2002,,,
1224,15/05/2001,,,
1225,14/05/2001,,,
1226,11/05/2001,,,
1227,18/05/2001,,,
1228,16/05/2001,,,
1229,21/05/2001,,,
1230,15/05/2001,,,
1231,18/05/2001,,,
1232,21/10/2002,,,
1233,21/05/2001,,,
1234,21/05/2001,,,
1235,21/05/2001,,,
1236,21/05/2001,,,
1237,21/05/2001,,,
1238,21/05/2001,,,
1239,21/05/2001,,,
1240,21/05/2001,,,
1241,21/05/2001,,,
1242,16/05/2001,,,
1243,24/05/2001,,,
1244,17/05/2001,,,
1245,15/05/2001,,,
1246,14/05/2001,,,
1247,14/05/2001,,,
1248,21/05/2001,,,
1249,21/05/2001,,,
1250,18/05/2001,,,
1251,21/05/2001,,,
1252,18/05/2001,,,
1253,21/05/2001,,,
1254,18/05/2001,,,
1255,21/05/2001,,,
1256,21/05/2001,,,
1257,21/05/2001,,,
1258,21/05/2001,,,
1259,22/05/2001,,,
1260,22/05/2001,,,
1261,16/05/2001,,,
1262,16/05/2001,,,
1263,16/05/2001,,,
1264,22/05/2001,,,
1265,16/05/2001,,,
1266,14/05/2001,,,
1267,15/05/2001,,,
1268,14/05/2001,,,
1269,15/05/2001,,,
1270,15/05/2001,,,
1271,18/05/2001,,,
1272,18/05/2001,,,
1273,21/05/2001,,,
1274,21/05/2001,,,
1275,21/05/2001,,,
1276,18/05/2001,,,
1277,18/05/2001,,,
1278,18/05/2001,,,
1279,17/05/2001,,,
1280,14/05/2001,,,
1281,14/05/2001,,,
1282,18/05/2001,,,
1283,22/05/2001,,,
1284,17/05/2001,,,
1285,17/05/2001,,,
1286,17/05/2001,,,
1287,14/05/2001,,,
1288,14/05/2001,,,
1289,11/05/2001,,,
1290,11/05/2001,,,
1291,11/05/2001,,,
1293,21/05/2001,,,
1294,15/05/2001,,,
1295,15/05/2001,,,
1296,22/05/2001,,,
1297,17/05/2001,,,
1298,15/05/2001,,,
1299,22/05/2001,,,
1300,16/05/2001,,,
1301,21/05/2001,,,
1302,14/05/2001,,,
1303,21/05/2001,,,
1304,11/05/2001,,,
1305,16/05/2001,,,
1306,14/05/2001,,,
1307,18/05/2001,,,
1308,11/05/2001,,,
1309,11/05/2001,,,
1311,21/05/2001,,,
1312,22/05/2001,,,
1313,15/05/2001,,,
1314,16/05/2001,,,
1315,14/05/2001,,,
1316,21/05/2001,,,
1317,23/05/2001,,,
1318,15/05/2001,,,
1319,17/05/2001,,,
1320,17/05/2001,,,
1321,15/05/2001,,,
1322,21/05/2001,,,
1323,18/05/2001,,,
1324,18/05/2001,,,
1325,18/05/2001,,,
1326,08/05/2001,,,
1327,11/05/2001,,,
1328,07/05/2001,,,
1329,07/05/2001,,,
1330,16/05/2001,,,
1331,16/05/2001,,,
1332,16/05/2001,,,
1333,18/05/2001,,,
1334,14/05/2001,,,
1335,16/05/2001,,,
1336,14/05/2001,,,
1337,21/05/2001,,,
1338,14/05/2001,,,
1339,15/05/2001,,,
1340,16/05/2001,,,
1341,15/05/2001,,,
1342,21/05/2001,,,
1343,15/05/2001,,,
1344,15/05/2001,,,
1345,22/05/2001,,,
1346,21/05/2001,,,
1347,21/05/2001,,,
1348,18/05/2001,,,
1349,17/05/2001,,,
1350,17/05/2001,,,
1351,17/05/2001,,,
1352,18/05/2001,,,
1353,14/05/2001,,,
1354,22/05/2001,,,
1355,22/05/2001,,,
1356,11/05/2001,,,
1357,11/05/2001,,,
1358,18/05/2001,,,
1359,16/05/2001,,,
1360,14/05/2001,,,
1361,14/05/2001,,,
1362,21/05/2001,,,
1363,16/05/2001,,,
1364,18/05/2001,,,
1365,21/05/2001,,,
1368,11/05/2001,,,
1369,14/05/2001,,,
1370,18/05/2001,,,
1371,18/05/2001,,,
1372,15/05/2001,,,
1373,17/05/2001,,,
1374,23/05/2001,,,
1375,14/05/2001,,,
1376,21/05/2001,,,
1377,11/05/2001,,,
1378,15/05/2001,,,
1379,14/05/2001,,,
1380,14/05/2001,,,
1381,16/05/2001,,,
1382,23/05/2001,,,
1383,18/05/2001,,,
1384,22/05/2001,,,
1385,15/05/2001,,,
1386,15/05/2001,,,
1387,25/06/2001,,,
1388,18/05/2001,,,
1389,18/05/2001,,,
1390,21/05/2001,,,
1391,17/05/2001,,,
1392,17/05/2001,,,
1393,21/05/2001,,,
1394,18/05/2001,,,
1395,18/05/2001,,,
1396,18/05/2001,,,
1397,21/05/2001,,,
1398,16/05/2001,,,
1399,17/05/2001,,,
1400,17/05/2001,,,
1401,14/05/2001,,,
1402,15/05/2001,,,
1403,21/05/2001,,,
1404,18/05/2001,,,
1405,14/05/2001,,,
1406,15/05/2001,,,
1407,18/05/2001,,,
1408,17/05/2001,,,
1409,22/05/2001,,,
1410,16/05/2001,,,
1411,21/05/2001,,,
1412,21/05/2001,,,
1413,14/05/2001,,,
1414,22/05/2001,,,
1415,14/05/2001,,,
1416,15/05/2001,,,
1417,15/05/2001,,,
1418,17/05/2001,,,
1419,09/05/2001,,,
1420,14/05/2001,,,
1421,14/05/2001,,,
1422,18/05/2001,,,
1423,21/05/2001,,,
1424,18/05/2001,,,
1425,17/05/2001,,,
1426,15/05/2001,,,
1428,22/05/2001,,,
1429,24/05/2001,,,
1430,07/05/2001,,,
1431,16/05/2001,,,
1432,17/05/2001,,,
1433,15/05/2001,,,
1434,03/09/2001,,,
1435,15/05/2001,,,
1436,11/05/2001,,,
1437,15/05/2001,,,
1438,18/05/2001,,,
1439,15/05/2001,,,
1440,18/05/2001,,,
1441,15/05/2001,,,
1442,11/05/2001,,,
1443,07/05/2001,,,
1444,18/05/2001,,,
1445,16/05/2001,,,
1446,17/05/2001,,,
1447,18/05/2001,,,
1448,11/05/2001,,,
1449,11/05/2001,,,
1450,17/05/2001,,,
1451,21/05/2001,,,
1452,21/05/2001,,,
1453,21/05/2001,,,
1454,21/05/2001,,,
1455,21/05/2001,,,
1456,22/05/2001,,,
1457,21/05/2001,,,
1458,22/05/2001,,,
1459,18/05/2001,,,
1460,07/05/2001,,,
1461,21/05/2001,,,
1462,23/05/2001,,,
1463,17/05/2001,,,
1464,21/05/2001,,,
1465,21/05/2001,,,
1466,17/05/2001,,,
1467,18/05/2001,,,
1468,18/05/2001,,,
1469,21/05/2001,,,
1470,14/05/2001,,,
1471,21/05/2001,,,
1472,14/05/2001,,,
1473,17/05/2001,,,
1474,18/05/2001,,,
1475,17/05/2001,,,
1476,18/05/2001,,,
1477,11/05/2001,,,
1478,16/05/2001,,,
1479,21/05/2001,,,
1480,21/05/2001,,,
1481,21/05/2001,,,
1482,18/05/2001,,,
1483,11/05/2001,,,
1484,14/05/2001,,,
1485,14/05/2001,,,
1486,18/05/2001,,,
1487,16/05/2001,,,
1488,16/05/2001,,,
1489,16/05/2001,,,
1490,17/05/2001,,,
1491,18/05/2001,,,
1492,21/05/2001,,,
1493,15/05/2001,,,
1494,18/05/2001,,,
1495,21/05/2001,,,
1496,15/05/2001,,,
1497,11/05/2001,,,
1498,22/05/2001,,,
1499,17/05/2001,,,
1500,22/05/2001,,,
1501,18/05/2001,,,
1502,15/05/2001,,,
1503,14/05/2001,,,
1504,17/05/2001,,,
1505,11/05/2001,,,
1506,18/05/2001,,,
1507,16/05/2001,,,
1508,21/05/2001,,,
1509,11/05/2001,,,
1510,17/05/2001,,,
1511,14/05/2001,,,
1512,15/05/2001,,,
1513,14/05/2001,,,
1514,18/05/2001,,,
1515,18/05/2001,,,
1516,14/05/2001,,,
1517,16/05/2001,,,
1518,18/05/2001,,,
1519,18/05/2001,,,
1520,11/05/2001,,,
1521,24/05/2001,,,
1522,18/05/2001,,,
1523,17/05/2001,,,
1524,15/05/2001,,,
1525,22/08/2003,,,
1526,13/10/2006,,,
1527,08/07/2005,,,
1528,08/07/2005,,,
1529,08/07/2005,,,
1530,18/07/2005,,,
1531,22/06/2006,,,
1532,22/06/2006,,,
1533,13/07/2006,,,
1534,13/07/2006,,,
1535,13/07/2006,,,
1536,13/07/2006,,,
1537,13/07/2006,,,
1538,13/07/2006,,,
1539,13/07/2006,,,
1540,13/07/2006,,,
1541,13/07/2006,,,
1542,13/07/2006,,,
1543,26/09/2006,,,
1544,23/10/2006,,,
1545,27/11/2006,,,
1546,27/11/2006,,,
1547,30/11/2006,,,
1548,30/11/2006,,,
1549,30/11/2006,,,
1550,12/02/2007,,,
1551,27/02/2007,,,
1552,10/04/2007,,,
1553,04/05/2007,,,
1554,27/04/2007,,,
1555,11/05/2007,,,
1556,14/06/2007,,,
1557,28/06/2007,,,
1558,28/06/2007,,,
1559,28/06/2007,,,
1560,16/08/2007,,,
1561,16/08/2007,,,
1562,02/10/2007,,,
1563,30/10/2007,,,
1564,29/04/2008,,,
1565,06/12/2007,,,
1566,28/01/2008,,,
1567,22/02/2008,,,
1568,10/04/2008,,,
1569,09/05/2008,,,
1570,24/04/2008,,,
1571,24/04/2008,,,
1572,05/06/2008,,,
1573,16/07/2008,,,
1574,08/08/2008,,,
1575,12/08/2008,,,
1576,10/10/2008,,,
1577,10/10/2008,,,
1578,10/10/2008,,,
1579,31/10/2008,,,
1580,25/02/2009,,,
1581,13/04/2009,,,
1582,13/04/2009,,,
1583,13/04/2009,,,
1584,14/04/2009,,,
1585,10/06/2009,,,
1586,15/06/2009,,,
1587,14/07/2009,,,
1588,26/08/2009,,,
1589,18/09/2009,,,
1590,05/02/2010,,,
1591,05/02/2010,,,
1592,12/04/2010,,,
1593,12/04/2010,,,
1594,12/04/2010,,,
1595,13/04/2010,,,
1596,24/08/2010,,,
1597,24/08/2010,,,
1598,20/09/2010,,,
1599,20/09/2010,,,
1600,20/09/2010,,,
1601,30/09/2010,,,
1602,30/09/2010,,,
1603,30/09/2010,,,
1604,04/11/2010,,,
1605,04/11/2010,,,
1606,25/11/2010,,,
1607,07/01/2011,,,
1608,07/01/2011,,,
1609,18/02/2011,,,
1610,18/02/2011,,,
1611,29/03/2011,,,
1612,20/04/2011,,,
1613,14/06/2011,,,
1614,11/08/2011,,,
1615,11/08/2011,,,
1616,11/08/2011,,,
1617,03/10/2011,,,
1618,03/10/2011,,,
1619,03/10/2011,,,
1620,18/10/2011,,,
1621,25/10/2011,,,
1622,25/10/2011,,,
1623,17/02/2012,,,
1624,17/02/2012,,,
1625,13/03/2012,,,
1626,13/03/2012,,,
1627,23/03/2012,,,
1628,17/05/2012,,,
1629,23/05/2012,,,
1630,06/06/2012,,,
1631,05/06/2012,,,
1632,31/07/2012,,,
1633,28/08/2012,,,
1634,28/08/2012,,,
1635,08/10/2012,,,
1636,23/10/2012,,,
1637,22/10/2012,,,
1638,23/10/2012,,,
1639,31/10/2012,,,
1640,11/12/2012,,,
1641,03/12/2012,,,
1642,11/12/2012,,,
1643,19/12/2012,,,
1644,30/01/2013,,,
1645,21/02/2013,,,
1646,19/02/2013,,,
1647,12/03/2013,,,
1648,24/04/2013,,,
1649,12/04/2013,,,
1650,22/05/2013,,,
1651,23/05/2013,,,
1652,05/06/2013,,,
1653,06/06/2013,,,
1654,17/06/2013,,,
1655,17/06/2013,,,
1656,17/06/2013,,,
1657,12/08/2013,,,
1658,16/10/2013,,,
1659,16/10/2013,,,
1660,27/11/2013,,,
1661,24/02/2014,,,
1662,24/02/2014,,,
1663,24/02/2014,,,
1664,24/02/2014,,,
1665,24/02/2014,,,
1666,18/03/2014,,,
1667,18/03/2014,,,
1668,18/03/2014,,,
1669,18/03/2014,,,
1670,18/03/2014,,,
1671,14/05/2014,,,
1672,14/05/2014,,,
1673,04/06/2014,,,
1674,14/05/2014,,,
1675,14/05/2014,,,
1676,07/08/2014,,,
1677,07/08/2014,,,
1678,07/08/2014,,,
1679,07/08/2014,,,
1680,30/07/2014,,,
1681,02/09/2014,,,
1682,28/11/2014,,,
1683,25/09/2014,,,
1684,25/09/2014,,,
1685,05/11/2014,,,
1686,05/11/2014,,,
1687,05/11/2014,,,
1688,28/11/2014,,,
1689,28/11/2014,,,
1690,28/11/2014,,,
1691,28/11/2014,,,
1692,26/11/2014,,,
1693,13/03/2015,,,
1694,13/03/2015,,,
1695,06/04/2015,,,
1696,13/03/2015,,,
1697,06/04/2015,,,
1698,06/04/2015,,,
1699,14/05/2015,,,
1700,14/05/2015,,,
1701,16/06/2015,,,
1702,24/06/2015,,,
1703,24/06/2015,,,
1704,15/07/2015,,,
1705,15/07/2015,,,
1706,20/07/2015,,,
1707,05/10/2015,,,
1708,21/09/2015,,,
1709,20/11/2015,,,
1710,30/10/2015,,,
1711,20/11/2015,,,
1712,20/11/2015,,,
1713,24/11/2015,,,
1714,24/11/2015,,,
1715,16/12/2015,,,
1716,16/12/2015,,,
1717,18/12/2015,,,
1730,11/05/2016,,,
1731,28/11/2016,,,
1733,13/09/2016,,,
1734,13/09/2016,,,
1735,08/09/2016,,,
1739,28/11/2016,,,
1740,06/12/2016,,,
1741,28/11/2016,,,
1742,06/10/2016,,,
1743,07/02/2017,,,
1744,06/12/2016,,,
1746,17/02/2017,,,
1747,17/02/2017,,,
1748,17/03/2017,,,
1749,20/04/2017,,,
1750,29/03/2017,,,
1751,20/04/2017,,,
1752,20/04/2017,,,
3001,16/05/2001,,,
3002,02/07/2002,,,
3003,21/05/2001,,,
3005,22/05/2001,,,
3006,21/05/2001,,,
3007,22/05/2001,,,
3008,14/05/2001,,,
3009,21/05/2001,,,
3010,17/05/2001,,,
3011,15/05/2001,,,
3012,18/05/2001,,,
3013,17/05/2001,,,
3014,14/05/2001,,,
3015,14/05/2001,,,
3016,21/05/2001,,,
3017,14/05/2001,,,
3018,08/05/2001,,,
3019,21/05/2001,,,
3020,18/05/2001,,,
3021,23/05/2001,,,
3022,22/05/2001,,,
3023,18/05/2001,,,
3024,16/05/2001,,,
3025,15/05/2001,,,
3026,17/05/2001,,,
3027,14/05/2001,,,
3028,11/06/2002,,,
3029,18/05/2001,,,
3030,14/05/2001,,,
3031,11/05/2001,,,
3032,21/05/2001,,,
3033,07/05/2001,,,
3034,16/05/2001,,,
3035,18/05/2001,,,
3036,15/05/2001,,,
3037,17/05/2001,,,
3038,17/05/2001,,,
3039,31/07/2001,,,
3040,23/08/2001,,,
3041,21/05/2001,,,
3042,11/05/2001,,,
3043,03/09/2001,,,
3044,11/05/2001,,,
3046,21/05/2001,,,
3047,17/05/2001,,,
3048,14/05/2001,,,
3049,17/05/2001,,,
3050,23/05/2001,,,
3051,16/05/2001,,,
3052,21/05/2001,,,
3053,21/06/2001,,,
3055,18/05/2001,,,
3057,21/05/2001,,,
3060,21/05/2001,,,
3061,21/05/2001,,,
3062,17/05/2001,,,
3063,16/05/2001,,,
3064,18/05/2001,,,
3065,21/05/2001,,,
3066,16/05/2001,,,
3067,16/05/2001,,,
3068,17/05/2001,,,
3069,08/06/2001,,,
3070,21/05/2001,,,
3071,15/05/2001,,,
3072,16/05/2001,,,
3073,23/05/2001,,,
3074,15/05/2001,,,
3075,15/05/2001,,,
3076,14/05/2001,,,
3077,21/05/2001,,,
3078,21/05/2001,,,
3079,11/05/2001,,,
3080,08/05/2001,,,
3081,18/05/2001,,,
3082,15/05/2001,,,
3083,21/05/2001,,,
3084,17/05/2001,,,
3085,22/05/2001,,,
3086,16/05/2001,,,
3087,17/05/2001,,,
3088,14/05/2001,,,
3089,14/05/2001,,,
3090,15/05/2001,,,
3091,14/05/2001,,,
3092,23/05/2001,,,
3093,10/09/2002,,,
3094,16/05/2001,,,
3095,21/05/2001,,,
3096,22/05/2001,,,
3097,21/05/2001,,,
3098,21/05/2001,,,
3099,22/05/2001,,,
3100,21/05/2001,,,
3101,21/05/2001,,,
3102,12/06/2001,,,
3103,11/05/2001,,,
3104,21/05/2001,,,
3105,21/05/2001,,,
3106,21/05/2001,,,
3107,21/05/2001,,,
3108,21/05/2001,,,
3109,14/05/2001,,,
3110,21/05/2001,,,
3111,15/05/2001,,,
3112,14/05/2001,,,
3114,17/05/2001,,,
3115,18/05/2001,,,
3116,11/05/2001,,,
3117,14/05/2001,,,
3118,14/05/2001,,,
3119,21/05/2001,,,
3120,18/05/2001,,,
3121,21/05/2001,,,
3122,07/05/2001,,,
3123,17/05/2001,,,
3124,03/09/2001,,,
3125,17/05/2001,,,
3126,17/05/2001,,,
3127,14/05/2001,,,
3128,17/05/2001,,,
3129,22/05/2001,,,
3130,21/05/2001,,,
3131,21/05/2001,,,
3132,22/05/2001,,,
3133,16/05/2001,,,
3134,22/05/2001,,,
3135,17/05/2001,,,
3136,09/12/2002,,,
3137,22/05/2001,,,
3138,18/05/2001,,,
3139,22/05/2001,,,
3140,17/05/2001,,,
3141,21/05/2001,,,
3142,23/05/2001,,,
3143,21/05/2001,,,
3144,16/05/2001,,,
3145,16/05/2001,,,
3146,11/05/2001,,,
3147,21/05/2001,,,
3148,21/05/2001,,,
3149,21/05/2001,,,
3151,23/05/2001,,,
3152,21/05/2001,,,
3153,17/05/2001,,,
3154,11/05/2001,,,
3155,21/05/2001,,,
3156,14/05/2001,,,
3157,18/05/2001,,,
3158,15/05/2001,,,
3159,21/05/2001,,,
3160,21/05/2001,,,
3162,15/05/2001,,,
3163,17/05/2001,,,
3164,23/05/2001,,,
3165,21/05/2001,,,
3166,15/05/2001,,,
3167,21/05/2001,,,
3168,16/05/2001,,,
3169,15/05/2001,,,
3170,21/05/2001,,,
3171,16/05/2001,,,
3172,27/11/2001,,,
3173,21/05/2001,,,
3174,15/05/2001,,,
3175,21/05/2001,,,
3176,21/05/2001,,,
3177,01/07/2002,,,
3178,16/05/2001,,,
3179,21/05/2001,,,
3180,23/05/2001,,,
3182,15/05/2001,,,
3183,14/05/2001,,,
3184,23/05/2001,,,
3185,18/05/2001,,,
3186,16/05/2001,,,
3187,14/05/2001,,,
3188,18/05/2001,,,
3189,16/05/2001,,,
3190,15/05/2001,,,
3191,17/05/2001,,,
3192,17/05/2001,,,
3193,14/05/2001,,,
3194,16/05/2001,,,
3195,18/05/2001,,,
3197,08/06/2001,,,
3198,23/08/2001,,,
3199,11/05/2001,,,
3200,16/05/2001,,,
3201,16/05/2001,,,
3202,16/05/2001,,,
3203,21/05/2001,,,
3204,21/05/2001,,,
3205,16/05/2001,,,
3206,21/05/2001,,,
3207,21/05/2001,,,
3208,21/05/2001,,,
3209,21/05/2001,,,
3210,18/05/2001,,,
3211,21/05/2001,,,
3212,16/05/2001,,,
3213,16/05/2001,,,
3214,17/05/2001,,,
3215,22/05/2001,,,
3216,21/05/2001,,,
3217,21/05/2001,,,
3218,15/05/2001,,,
3219,21/05/2001,,,
3220,14/05/2001,,,
3221,15/05/2001,,,
3222,11/05/2001,,,
3223,14/05/2001,,,
3224,21/05/2001,,,
3226,17/05/2001,,,
3227,15/05/2001,,,
3229,17/05/2001,,,
3230,22/05/2001,,,
3231,18/05/2001,,,
3232,21/05/2001,,,
3233,17/05/2001,,,
3234,15/05/2001,,,
3235,14/05/2001,,,
3236,14/05/2001,,,
3237,17/05/2001,,,
3238,15/06/2001,,,
3240,17/05/2001,,,
3241,16/05/2001,,,
3242,22/05/2001,,,
3244,21/05/2001,,,
3245,18/05/2001,,,
3246,11/05/2001,,,
3247,21/05/2001,,,
3248,16/05/2001,,,
3249,23/05/2001,,,
3250,22/05/2001,,,
3251,14/05/2001,,,
3252,18/05/2001,,,
3253,14/05/2001,,,
3254,15/05/2001,,,
3255,17/05/2001,,,
3256,18/05/2001,,,
3257,15/05/2001,,,
3258,23/05/2001,,,
3259,18/05/2001,,,
3260,22/05/2001,,,
3262,14/05/2001,,,
3263,22/05/2001,,,
3264,18/05/2001,,,
3265,21/05/2001,,,
3266,17/05/2001,,,
3267,21/05/2001,,,
3268,15/05/2001,,,
3269,17/05/2001,,,
3270,17/05/2001,,,
3271,21/05/2001,,,
3272,21/05/2001,,,
3273,22/05/2001,,,
3274,18/05/2001,,,
3275,15/05/2001,,,
3276,21/05/2001,,,
3277,18/05/2001,,,
3278,16/05/2001,,,
3279,30/01/2002,,,
3280,18/05/2001,,,
3281,16/05/2001,,,
3283,21/05/2001,,,
3284,11/05/2001,,,
3285,15/05/2001,,,
3286,16/05/2001,,,
3287,14/05/2001,,,
3288,23/05/2001,,,
3289,12/06/2001,,,
3290,22/05/2001,,,
3291,18/05/2001,,,
3292,18/05/2001,,,
3293,17/05/2001,,,
3294,17/05/2001,,,
3295,18/05/2001,,,
3296,21/05/2001,,,
3297,17/05/2001,,,
3298,08/05/2001,,,
3299,14/06/2001,,,
3300,01/08/2001,,,
3301,18/05/2001,,,
3302,17/05/2001,,,
3303,18/06/2001,,,
3305,15/05/2001,,,
3306,18/05/2001,,,
3308,21/05/2001,,,
3309,15/05/2001,,,
3311,15/05/2001,,,
3312,14/05/2001,,,
3313,21/05/2001,,,
3314,17/05/2001,,,
3315,16/05/2001,,,
3316,15/05/2001,,,
3317,11/05/2001,,,
3319,29/06/2001,,,
3320,17/05/2001,,,
3321,21/05/2001,,,
3322,29/05/2002,,,
3323,18/05/2001,,,
3324,14/05/2001,,,
3325,31/07/2001,,,
3326,15/05/2001,,,
3327,14/05/2001,,,
3328,21/05/2001,,,
3329,14/05/2001,,,
3330,11/05/2001,,,
3331,21/05/2001,,,
3332,17/05/2001,,,
3333,15/05/2001,,,
3334,18/05/2001,,,
3335,18/05/2001,,,
3336,16/05/2001,,,
3337,17/05/2001,,,
3338,17/05/2001,,,
3339,21/05/2001,,,
3340,22/05/2001,,,
3341,22/05/2001,,,
3342,14/05/2001,,,
3343,15/05/2001,,,
3344,22/05/2001,,,
3345,15/05/2001,,,
3346,14/05/2001,,,
3347,16/05/2001,,,
3348,17/05/2001,,,
3349,16/05/2001,,,
3351,17/05/2001,,,
3353,15/05/2001,,,
3354,11/05/2001,,,
3355,16/05/2001,,,
3356,17/05/2001,,,
3357,14/05/2001,,,
3358,18/05/2001,,,
3359,21/05/2001,,,
3360,11/05/2001,,,
3361,21/05/2001,,,
3362,16/05/2001,,,
3363,16/05/2001,,,
3364,21/05/2001,,,
3365,18/05/2001,,,
3366,15/05/2001,,,
3368,21/05/2001,,,
3369,17/05/2001,,,
3370,14/05/2001,,,
3371,21/05/2001,,,
3372,21/05/2001,,,
3373,22/05/2001,,,
3374,17/05/2001,,,
3375,18/05/2001,,,
3376,22/05/2001,,,
3377,07/05/2001,,,
3378,16/05/2001,,,
3379,17/05/2001,,,
3381,21/05/2001,,,
3382,17/05/2001,,,
3383,18/05/2001,,,
3384,15/05/2001,,,
3385,18/05/2001,,,
3386,17/05/2001,,,
3387,21/05/2001,,,
3389,16/05/2001,,,
3390,21/05/2001,,,
3391,21/05/2001,,,
3392,16/05/2001,,,
3393,21/05/2001,,,
3394,21/05/2001,,,
3395,17/05/2001,,,
3396,22/05/2001,,,
3397,15/05/2001,,,
3398,15/05/2001,,,
3399,17/05/2001,,,
3400,21/05/2001,,,
3402,17/05/2001,,,
3403,21/05/2001,,,
3404,16/05/2001,,,
3405,11/05/2001,,,
3406,17/05/2001,,,
3407,16/05/2001,,,
3408,17/05/2001,,,
3409,15/05/2001,,,
3410,14/05/2001,,,
3411,21/05/2001,,,
3412,21/05/2001,,,
3413,21/05/2001,,,
3414,21/10/2002,,,
3415,29/05/2002,,,
3416,15/05/2001,,,
3417,21/05/2001,,,
3418,21/05/2001,,,
3419,21/05/2001,,,
3420,14/05/2001,,,
3421,21/05/2001,,,
3422,21/05/2001,,,
3423,17/05/2001,,,
3424,21/05/2001,,,
3425,17/05/2001,,,
3426,07/05/2001,,,
3428,22/05/2001,,,
3429,16/05/2001,,,
3430,17/05/2001,,,
3431,16/05/2001,,,
3432,14/05/2001,,,
3433,15/05/2001,,,
3434,21/05/2001,,,
3435,21/05/2001,,,
3436,18/05/2001,,,
3437,21/05/2001,,,
3438,21/05/2001,,,
3439,22/05/2001,,,
3440,21/05/2001,,,
3441,21/05/2001,,,
3442,14/05/2001,,,
3444,14/05/2001,,,
3445,11/05/2001,,,
3446,14/05/2001,,,
3447,21/05/2001,,,
3448,11/05/2001,,,
3449,18/05/2001,,,
3450,21/05/2001,,,
3451,11/05/2001,,,
3452,18/05/2001,,,
3453,16/05/2001,,,
3454,15/05/2001,,,
3455,14/05/2001,,,
3456,16/05/2001,,,
3457,11/05/2001,,,
3458,21/05/2001,,,
3459,14/05/2001,,,
3460,21/05/2001,,,
3461,21/05/2001,,,
3462,21/05/2001,,,
3463,15/05/2001,,,
3464,11/05/2001,,,
3465,22/05/2001,,,
3466,21/05/2001,,,
3467,14/05/2001,,,
3468,11/05/2001,,,
3469,11/05/2001,,,
3470,18/05/2001,,,
3471,17/05/2001,,,
3472,22/05/2001,,,
3473,16/05/2001,,,
3474,18/05/2001,,,
3475,15/05/2001,,,
3476,16/05/2001,,,
3477,16/05/2001,,,
3478,14/05/2001,,,
3479,18/05/2001,,,
3480,22/05/2001,,,
3481,16/05/2001,,,
3482,15/05/2001,,,
3483,18/05/2001,,,
3484,14/05/2001,,,
3485,11/05/2001,,,
3486,21/05/2001,,,
3487,15/05/2001,,,
3488,17/05/2001,,,
3489,21/05/2001,,,
3490,15/05/2001,,,
3491,14/05/2001,,,
3492,16/05/2001,,,
3493,24/05/2001,,,
3494,18/05/2001,,,
3495,14/05/2001,,,
3496,21/05/2001,,,
3497,17/05/2001,,,
3498,14/05/2001,,,
3499,15/05/2001,,,
3500,18/05/2001,,,
3501,17/05/2001,,,
3502,17/05/2001,,,
3503,11/05/2001,,,
3504,22/05/2001,,,
3505,22/05/2001,,,
3506,18/05/2001,,,
3508,21/05/2001,,,
3509,18/05/2001,,,
3510,21/05/2001,,,
3511,15/05/2001,,,
3512,14/05/2001,,,
3513,11/05/2001,,,
3514,21/05/2001,,,
3515,15/05/2001,,,
3516,14/05/2001,,,
3517,17/05/2001,,,
3518,21/05/2001,,,
3519,18/05/2001,,,
3520,12/02/2002,,,
3521,24/05/2001,,,
3522,17/05/2001,,,
3524,16/05/2001,,,
3525,21/05/2001,,,
3526,21/05/2001,,,
3527,16/05/2001,,,
3528,21/05/2001,,,
3529,21/05/2001,,,
3530,16/05/2001,,,
3532,21/05/2001,,,
3533,16/05/2001,,,
3535,15/05/2001,,,
3536,17/05/2001,,,
3537,17/05/2001,,,
3538,16/05/2001,,,
3539,14/05/2001,,,
3540,11/05/2001,,,
3541,18/05/2001,,,
3542,18/05/2001,,,
3543,21/05/2001,,,
3544,21/05/2001,,,
3545,17/05/2001,,,
3546,14/05/2001,,,
3547,21/05/2001,,,
3549,18/05/2001,,,
3550,15/05/2001,,,
3551,17/05/2001,,,
3552,14/05/2001,,,
3553,14/05/2001,,,
3554,15/05/2001,,,
3555,11/05/2001,,,
3556,14/05/2001,,,
3557,21/05/2001,,,
3558,16/05/2001,,,
3559,14/05/2001,,,
3560,14/05/2001,,,
3561,18/05/2001,,,
3562,14/05/2001,,,
3563,11/05/2001,,,
3564,09/05/2001,,,
3565,11/05/2001,,,
3566,21/05/2001,,,
3567,21/05/2001,,,
3568,24/05/2001,,,
3569,18/05/2001,,,
3570,16/05/2001,,,
3571,17/05/2001,,,
3573,16/05/2001,,,
3574,21/05/2001,,,
3575,21/05/2001,,,
3576,21/05/2001,,,
3577,18/05/2001,,,
3578,14/05/2001,,,
3579,14/05/2001,,,
3580,17/05/2001,,,
3581,16/05/2001,,,
3582,16/05/2001,,,
3583,21/05/2001,,,
3584,16/05/2001,,,
3585,21/05/2001,,,
3586,21/05/2001,,,
3587,21/05/2001,,,
3588,16/05/2001,,,
3589,14/05/2001,,,
3590,16/05/2001,,,
3591,21/05/2001,,,
3592,21/05/2001,,,
3593,23/05/2001,,,
3594,15/05/2001,,,
3595,18/05/2001,,,
3596,07/05/2001,,,
3597,21/05/2001,,,
3598,14/05/2001,,,
3599,12/06/2001,,,
3600,14/05/2001,,,
3601,11/05/2001,,,
3602,22/05/2001,,,
3603,18/05/2001,,,
3604,17/05/2001,,,
3605,18/06/2001,,,
3606,17/05/2001,,,
3607,15/05/2001,,,
3608,18/05/2001,,,
3609,11/05/2001,,,
3610,15/06/2001,,,
3611,15/05/2001,,,
3612,16/05/2001,,,
3613,15/05/2001,,,
3614,07/05/2001,,,
3615,16/05/2001,,,
3616,21/05/2001,,,
3617,14/05/2001,,,
3618,22/05/2001,,,
3619,15/05/2001,,,
3620,22/05/2001,,,
3621,03/09/2001,,,
3622,07/05/2001,,,
3623,18/05/2001,,,
3624,17/05/2001,,,
3625,06/09/2001,,,
3626,17/05/2001,,,
3627,22/05/2001,,,
3628,17/05/2001,,,
3629,21/05/2001,,,
3630,17/05/2001,,,
3631,18/05/2001,,,
3632,17/05/2001,,,
3633,15/05/2001,,,
3634,21/05/2001,,,
3635,15/05/2001,,,
3636,15/05/2001,,,
3637,16/05/2001,,,
3638,07/05/2001,,,
3639,24/05/2001,,,
3640,22/05/2001,,,
3642,15/05/2001,,,
3643,22/05/2001,,,
3644,18/05/2001,,,
3645,18/05/2001,,,
3646,18/05/2001,,,
3647,15/05/2001,,,
3648,21/05/2001,,,
3649,21/05/2001,,,
3650,10/06/2002,,,
3651,17/05/2001,,,
3652,18/05/2001,,,
3653,15/05/2001,,,
3654,21/05/2001,,,
3655,15/05/2001,,,
3656,18/05/2001,,,
3657,18/05/2001,,,
3658,14/05/2001,,,
3659,18/05/2001,,,
3660,18/05/2001,,,
3661,16/08/2002,,,
3662,16/05/2001,,,
3663,21/05/2001,,,
3664,15/05/2001,,,
3665,17/05/2001,,,
3666,18/05/2001,,,
3667,18/05/2001,,,
3668,21/05/2001,,,
3669,11/05/2001,,,
3670,23/05/2001,,,
3671,14/05/2001,,,
3672,13/03/2002,,,
3673,15/05/2001,,,
3674,22/05/2001,,,
3675,17/05/2001,,,
3676,11/05/2001,,,
3677,23/05/2001,,,
3678,17/05/2001,,,
3679,17/05/2001,,,
3680,22/05/2001,,,
3681,21/05/2001,,,
3682,14/05/2001,,,
3683,21/05/2001,,,
3684,21/05/2001,,,
3685,22/05/2001,,,
3686,22/05/2001,,,
3687,22/05/2001,,,
3688,15/05/2001,,,
3689,14/05/2001,,,
3690,21/05/2001,,,
3691,21/06/2001,,,
3692,15/05/2001,,,
3693,21/05/2001,,,
3694,17/05/2001,,,
3695,18/05/2001,,,
3696,15/05/2001,,,
3697,21/05/2001,,,
3698,21/05/2001,,,
3699,21/05/2001,,,
3700,11/05/2001,,,
3701,21/05/2001,,,
3702,14/05/2001,,,
3703,21/06/2001,,,
3704,21/05/2001,,,
3705,14/05/2001,,,
3706,22/05/2001,,,
3707,24/05/2001,,,
3708,22/05/2001,,,
3709,21/05/2001,,,
3710,21/05/2001,,,
3711,21/05/2001,,,
3712,15/05/2001,,,
3713,18/05/2001,,,
3714,16/05/2001,,,
3715,22/05/2001,,,
3716,15/05/2001,,,
3717,17/05/2001,,,
3718,22/05/2001,,,
3719,17/05/2001,,,
3720,17/05/2001,,,
3721,17/05/2001,,,
3722,14/05/2001,,,
3723,17/05/2001,,,
3724,16/05/2001,,,
3725,17/05/2001,,,
3726,15/05/2001,,,
3727,16/05/2001,,,
3728,15/05/2001,,,
3729,18/05/2001,,,
3730,21/05/2001,,,
3731,14/05/2001,,,
3732,14/05/2001,,,
3733,18/05/2001,,,
3734,18/05/2001,,,
3735,22/05/2001,,,
3736,21/05/2001,,,
3737,22/05/2001,,,
3738,21/05/2001,,,
3739,14/05/2001,,,
3740,17/05/2001,,,
3741,21/05/2001,,,
3742,21/05/2001,,,
3743,21/05/2001,,,
3744,21/05/2001,,,
3746,14/05/2001,,,
3747,15/05/2001,,,
3748,15/05/2001,,,
3749,15/05/2001,,,
3750,17/05/2001,,,
3751,18/05/2001,,,
3752,21/05/2001,,,
3753,17/05/2001,,,
3754,15/05/2001,,,
3755,18/05/2001,,,
3756,18/05/2001,,,
3757,14/05/2001,,,
3758,22/05/2001,,,
3759,21/05/2001,,,
3760,18/05/2001,,,
3761,17/05/2001,,,
3762,18/05/2001,,,
3763,15/05/2001,,,
3764,14/05/2001,,,
3765,14/05/2001,,,
3766,18/05/2001,,,
3767,17/05/2001,,,
3769,18/05/2001,,,
3770,14/05/2001,,,
3771,18/05/2001,,,
3772,21/05/2001,,,
3773,18/05/2001,,,
3774,17/05/2001,,,
3775,21/05/2001,,,
3776,07/05/2001,,,
3777,18/05/2001,,,
3778,16/05/2001,,,
3779,21/05/2001,,,
3780,18/05/2001,,,
3781,17/05/2001,,,
3783,17/05/2001,,,
3784,18/05/2001,,,
3785,07/05/2001,,,
3786,22/05/2001,,,
3787,17/05/2001,,,
3788,17/05/2001,,,
3789,11/05/2001,,,
3790,07/05/2001,,,
3791,14/05/2001,,,
3792,23/05/2001,,,
3793,18/05/2001,,,
3794,18/05/2001,,,
3795,18/05/2001,,,
3796,15/05/2001,,,
3797,14/05/2001,,,
3799,15/05/2001,,,
3800,11/05/2001,,,
3801,21/05/2001,,,
3802,14/05/2001,,,
3803,21/05/2001,,,
3804,15/05/2001,,,
3805,11/05/2001,,,
3806,18/05/2001,,,
3807,14/05/2001,,,
3808,11/05/2001,,,
3809,18/05/2001,,,
3810,16/05/2001,,,
3811,18/05/2001,,,
3812,11/05/2001,,,
3813,13/06/2001,,,
3814,13/06/2001,,,
3815,26/07/2001,,,
3816,20/07/2001,,,
3817,22/08/2001,,,
3818,29/01/2002,,,
3819,28/01/2002,,,
3820,10/01/2002,,,
3821,10/01/2002,,,
3822,17/10/2002,,,
3823,28/01/2002,,,
3824,24/01/2002,,,
3825,28/01/2002,,,
3826,16/12/2002,,,
3827,13/07/2005,,,
3828,28/08/2002,,,
3829,24/09/2002,,,
3830,11/10/2002,,,
3831,22/10/2002,,,
3832,14/10/2002,,,
3833,30/10/2002,,,
3834,15/11/2002,,,
3835,15/11/2002,,,
3836,09/12/2002,,,
3837,09/12/2002,,,
3838,14/01/2003,,,
3839,09/12/2002,,,
3840,09/12/2002,,,
3841,23/01/2003,,,
3842,22/01/2003,,,
3843,14/01/2003,,,
3844,20/03/2003,,,
3845,26/03/2003,,,
3846,26/03/2003,,,
3847,15/04/2003,,,
3848,20/03/2003,,,
3849,20/03/2003,,,
3850,20/03/2003,,,
3851,12/05/2003,,,
3852,01/07/2005,,,
3853,02/05/2003,,,
3854,12/05/2003,,,
3855,22/05/2003,,,
3856,03/06/2003,,,
3857,09/06/2003,,,
3858,04/06/2003,,,
3859,31/05/2004,,,
3860,14/08/2003,,,
3861,28/08/2003,,,
3862,14/11/2003,,,
3863,25/11/2003,,,
3864,26/05/2004,,,
3865,26/04/2004,,,
3866,19/01/2004,,,
3867,31/05/2004,,,
3868,10/05/2004,,,
3869,08/09/2004,,,
3870,19/03/2004,,,
3871,31/05/2004,,,
3872,14/06/2004,,,
3873,16/05/2005,,,
3874,21/06/2004,,,
3875,12/10/2004,,,
3876,30/08/2004,,,
3877,28/10/2004,,,
3878,06/10/2004,,,
3879,04/05/2005,,,
3880,12/07/2005,,,
3881,03/01/2005,,,
3882,06/05/2005,,,
3883,07/02/2005,,,
3884,09/02/2005,,,
3885,14/06/2005,,,
3886,04/07/2005,,,
3887,03/08/2005,,,
3888,05/09/2005,,,
3889,03/11/2005,,,
3890,10/10/2005,,,
3891,23/09/2005,,,
3892,20/09/2005,,,
3893,14/09/2005,,,
3894,03/10/2005,,,
3895,17/10/2005,,,
3896,24/10/2005,,,
3897,15/03/2006,,,
3898,20/02/2006,,,
3899,28/03/2006,,,
3900,03/05/2006,,,
3901,14/07/2006,,,
3902,02/08/2006,,,
3903,17/08/2006,,,
3904,09/11/2006,,,
3905,20/10/2006,,,
3906,17/08/2006,,,
3907,30/08/2006,,,
3908,30/08/2006,,,
3909,02/10/2006,,,
3910,03/10/2006,,,
3911,13/11/2006,,,
3912,20/10/2006,,,
3913,30/11/2006,,,
3914,14/12/2006,,,
3915,09/03/2007,,,
3916,09/01/2007,,,
3917,11/01/2007,,,
3918,10/01/2007,,,
3919,09/04/2007,,,
3920,23/03/2007,,,
3921,30/04/2007,,,
3922,15/05/2007,,,
3923,25/05/2007,,,
3924,21/05/2007,,,
3925,06/06/2007,,,
3926,23/07/2007,,,
3927,07/09/2007,,,
3928,02/10/2007,,,
3929,21/08/2007,,,
3930,26/10/2007,,,
3931,04/10/2007,,,
3932,10/12/2007,,,
3933,28/01/2008,,,
3934,08/02/2008,,,
3935,25/03/2008,,,
3936,12/05/2008,,,
3937,21/04/2008,,,
3938,19/05/2008,,,
3939,19/05/2008,,,
3940,13/06/2008,,,
3941,01/07/2008,,,
3942,16/07/2008,,,
3943,16/07/2008,,,
3944,27/06/2008,,,
3945,04/07/2008,,,
3946,28/07/2008,,,
3947,20/08/2008,,,
3948,04/08/2008,,,
3949,19/09/2008,,,
3950,25/08/2008,,,
3951,05/09/2008,,,
3952,16/10/2008,,,
3953,25/09/2008,,,
3954,03/11/2008,,,
3955,20/10/2008,,,
3956,06/11/2008,,,
3957,07/10/2008,,,
3958,03/02/2009,,,
3959,30/10/2008,,,
3960,03/11/2008,,,
3961,11/12/2008,,,
3962,01/04/2009,,,
3963,25/03/2009,,,
3964,15/05/2009,,,
3965,16/06/2009,,,
3966,14/05/2009,,,
3967,12/05/2009,,,
3968,08/06/2009,,,
3969,17/06/2009,,,
3970,01/07/2009,,,
3971,14/07/2009,,,
3972,25/06/2009,,,
3973,05/10/2009,,,
3974,22/09/2009,,,
3975,17/09/2009,,,
3976,29/01/2010,,,
3977,21/10/2009,,,
3978,17/11/2009,,,
3979,11/01/2010,,,
3980,12/03/2010,,,
3981,10/03/2010,,,
3982,23/04/2010,,,
3983,29/04/2010,,,
3984,29/04/2010,,,
3985,21/09/2010,,,
3986,13/09/2010,,,
3987,01/10/2010,,,
3988,20/10/2010,,,
3989,22/11/2010,,,
3990,19/10/2010,,,
3991,21/10/2010,,,
3992,11/10/2010,,,
3993,01/12/2010,,,
3994,01/12/2010,,,
3995,13/01/2011,,,
3996,07/01/2011,,,
3997,27/01/2011,,,
3998,26/01/2011,,,
3999,15/02/2011,,,
4001,21/12/2001,,,
4002,02/01/2002,,,
4003,21/12/2001,,,
4004,21/12/2001,,,
4005,21/12/2001,,,
4006,21/12/2001,,,
4007,21/12/2001,,,
4008,21/12/2001,,,
4009,21/12/2001,,,
4011,27/08/2002,,,
4012,21/12/2001,,,
4013,21/12/2001,,,
4014,21/12/2001,,,
4015,21/12/2001,,,
4016,21/12/2001,,,
4017,21/12/2001,,,
4018,31/12/2001,,,
4019,21/12/2001,,,
4020,22/08/2002,,,
4021,21/12/2001,,,
4022,21/12/2001,,,
4023,21/12/2001,,,
4024,21/12/2001,,,
4025,02/01/2002,,,
4026,21/12/2001,,,
4027,21/12/2001,,,
4028,07/04/2004,,,
4029,02/01/2002,,,
4030,02/01/2002,,,
4031,02/01/2002,,,
4032,02/01/2002,,,
4033,21/12/2001,,,
4035,02/01/2002,,,
4036,21/12/2001,,,
4037,02/01/2002,,,
4038,02/01/2002,,,
4039,02/01/2002,,,
4040,20/08/2002,,,
4041,15/10/2002,,,
4042,02/01/2002,,,
4043,02/01/2002,,,
4044,02/01/2002,,,
4045,02/01/2002,,,
4046,26/08/2002,,,
4047,02/01/2002,,,
4048,02/01/2002,,,
4049,12/08/2002,,,
4050,21/12/2001,,,
4052,02/01/2002,,,
4054,31/10/2002,,,
4055,19/08/2002,,,
4056,26/08/2002,,,
4057,25/07/2002,,,
4058,02/01/2002,,,
4059,02/01/2002,,,
4060,26/08/2002,,,
4061,20/08/2002,,,
4063,31/12/2001,,,
4064,02/01/2002,,,
4066,31/12/2001,,,
4067,21/12/2001,,,
4068,17/10/2002,,,
4069,02/01/2002,,,
4070,10/10/2002,,,
4071,19/05/2004,,,
4072,19/05/2004,,,
4073,21/08/2002,,,
4074,14/05/2003,,,
4075,30/05/2003,,,
4076,14/11/2003,,,
4078,19/05/2004,,,
4079,28/06/2004,,,
4080,06/07/2004,,,
4081,11/08/2004,,,
4082,23/07/2004,,,
4083,05/04/2005,,,
4084,05/09/2005,,,
4085,15/02/2008,,,
4086,24/04/2012,,,
4087,21/12/2011,,,
4088,29/05/2012,,,
4089,14/03/2005,,,
4090,21/06/2005,,,
4091,07/06/2006,,,
4092,04/07/2006,,,
4093,08/11/2006,,,
4094,03/05/2007,,,
4095,13/03/2007,,,
4096,22/08/2007,,,
4098,31/01/2008,,,
4099,11/06/2008,,,
4100,27/08/2008,,,
4101,01/07/2010,,,
4102,29/06/2010,,,
4103,26/07/2010,,,
4104,01/12/2010,,,
4105,13/06/2011,,,
4106,21/09/2011,,,
4107,17/09/2012,,,
4108,23/10/2012,,,
4109,26/04/2013,,,
4110,07/03/2013,,,
4111,23/07/2013,,,
4112,05/09/2013,,,
4113,04/11/2013,,,
4114,10/04/2014,,,
4115,16/05/2014,,,
4116,22/06/2016,,,
4117,06/07/2015,,,
5001,01/01/2001,,,
5002,22/08/2002,,,
5003,01/01/2001,,,
5004,01/01/2001,,,
5005,01/01/2001,,,
5006,01/01/2001,,,
5007,01/01/2001,,,
5008,01/01/2001,,,
5009,01/01/2001,,,
5010,01/01/2001,,,
5011,01/01/2001,,,
5012,01/01/2001,,,
5013,22/08/2002,,,
5014,01/01/2001,,,
5015,22/08/2002,,,
5016,01/01/2001,,,
5017,01/01/2001,,,
5018,01/01/2001,,,
5019,01/01/2001,,,
5020,01/01/2001,,,
5021,01/01/2001,,,
5022,01/01/2001,,,
5023,01/01/2001,,,
5024,01/01/2001,,,
5025,01/01/2001,,,
5026,01/01/2001,,,
5027,01/01/2001,,,
5028,01/01/2001,,,
5029,01/01/2001,,,
5030,01/01/2001,,,
5031,01/01/2001,,,
5032,01/01/2001,,,
5033,01/01/2001,,,
5034,01/01/2001,,,
5035,01/01/2001,,,
5036,01/01/2001,,,
5037,01/01/2001,,,
5038,01/01/2001,,,
5039,01/01/2001,,,
5040,01/01/2001,,,
5041,01/01/2001,,,
5042,01/01/2001,,,
5043,01/01/2001,,,
5044,01/01/2001,,,
5045,01/01/2001,,,
5046,01/01/2001,,,
5047,01/01/2001,,,
5048,01/01/2001,,,
5049,01/01/2001,,,
5050,01/01/2001,,,
5051,01/01/2001,,,
5052,01/01/2001,,,
5053,01/01/2001,,,
5054,01/01/2001,,,
5055,01/01/2001,,,
5056,01/01/2001,,,
5057,01/01/2001,,,
5058,01/01/2001,,,
5059,01/01/2001,,,
5060,01/01/2001,,,
5061,01/01/2001,,,
5062,01/01/2001,,,
5063,01/01/2001,,,
5064,01/01/2001,,,
5065,01/01/2001,,,
5066,01/01/2001,,,
5067,01/01/2001,,,
5068,01/01/2001,,,
5069,13/04/2004,,,
5070,01/01/2001,,,
5071,01/01/2001,,,
5072,01/01/2001,,,
5073,01/01/2001,,,
5074,01/01/2001,,,
5075,01/01/2001,,,
5076,01/01/2001,,,
5077,01/01/2001,,,
5078,01/01/2001,,,
5079,01/01/2001,,,
5080,01/01/2001,,,
5081,01/01/2001,,,
5082,01/01/2001,,,
5083,01/01/2001,,,
5084,01/01/2001,,,
5085,01/01/2001,,,
5086,01/01/2001,,,
5087,01/01/2001,,,
5088,01/01/2001,,,
5089,01/01/2001,,,
5090,01/01/2001,,,
5091,01/01/2001,,,
5092,01/01/2001,,,
5093,01/01/2001,,,
5094,01/01/2001,,,
5095,01/01/2001,,,
5096,01/01/2001,,,
5098,01/01/2001,,,
5099,01/01/2001,,,
5100,01/01/2001,,,
5101,01/01/2001,,,
5102,01/01/2001,,,
5103,01/01/2001,,,
5104,01/01/2001,,,
5105,01/01/2001,,,
5106,01/01/2001,,,
5107,01/01/2001,,,
5108,01/01/2001,,,
5109,01/01/2001,,,
5110,01/01/2001,,,
5111,01/01/2001,,,
5112,01/01/2001,,,
5113,01/01/2001,,,
5114,01/01/2001,,,
5115,01/01/2001,,,
5116,01/01/2001,,,
5117,01/01/2001,,,
5118,01/01/2001,,,
5119,01/01/2001,,,
5120,01/01/2001,,,
5121,01/01/2001,,,
5122,01/01/2001,,,
5123,01/01/2001,,,
5124,01/01/2001,,,
5125,01/01/2001,,,
5126,01/01/2001,,,
5127,01/01/2001,,,
5128,01/01/2001,,,
5129,01/01/2001,,,
5130,08/08/2002,,,
5131,01/01/2001,,,
5132,01/01/2001,,,
5133,01/01/2001,,,
5134,01/01/2001,,,
5135,01/01/2001,,,
5136,01/01/2001,,,
5137,01/01/2001,,,
5138,01/01/2001,,,
5139,01/01/2001,,,
5140,01/01/2001,,,
5141,01/01/2001,,,
5142,01/01/2001,,,
5143,01/01/2001,,,
5148,01/01/2001,,,
5149,01/01/2001,,,
5150,01/01/2001,,,
5151,01/01/2001,,,
5152,01/01/2001,,,
5153,01/01/2001,,,
5154,01/01/2001,,,
5155,01/01/2001,,,
5156,01/01/2001,,,
5157,01/01/2001,,,
5158,01/01/2001,,,
5159,01/01/2001,,,
5160,01/01/2001,,,
5161,01/01/2001,,,
5162,01/01/2001,,,
5163,01/01/2001,,,
5164,01/01/2001,,,
5165,01/01/2001,,,
5166,01/01/2001,,,
5167,01/01/2001,,,
5168,01/01/2001,,,
5170,01/01/2001,,,
5171,01/01/2001,,,
5172,01/01/2001,,,
5173,01/01/2001,,,
5174,01/01/2001,,,
5175,01/01/2001,,,
5176,01/01/2001,,,
5177,01/01/2001,,,
5178,01/01/2001,,,
5179,01/01/2001,,,
5180,01/01/2001,,,
5181,01/01/2001,,,
5182,01/01/2001,,,
5183,01/01/2001,,,
5184,01/01/2001,,,
5185,01/01/2001,,,
5186,01/01/2001,,,
5187,01/01/2001,,,
5188,01/01/2001,,,
5189,01/01/2001,,,
5190,01/01/2001,,,
5191,01/01/2001,,,
5192,01/01/2001,,,
5193,01/01/2001,,,
5194,01/01/2001,,,
5195,01/01/2001,,,
5196,01/01/2001,,,
5197,01/01/2001,,,
5198,01/01/2001,,,
5199,01/01/2001,,,
5200,01/01/2001,,,
5201,01/01/2001,,,
5202,01/01/2001,,,
5203,01/01/2001,,,
5204,01/01/2001,,,
5205,01/01/2001,,,
5206,01/01/2001,,,
5207,01/01/2001,,,
5208,01/01/2001,,,
5209,01/01/2001,,,
5210,01/01/2001,,,
5211,01/01/2001,,,
5212,01/01/2001,,,
5213,01/01/2001,,,
5214,01/01/2001,,,
5215,01/01/2001,,,
5216,01/01/2001,,,
5217,01/01/2001,,,
5218,01/01/2001,,,
5219,01/01/2001,,,
5220,01/01/2001,,,
5221,01/01/2001,,,
5222,01/01/2001,,,
5223,01/01/2001,,,
5224,01/01/2001,,,
5225,01/01/2001,,,
5226,01/01/2001,,,
5227,01/01/2001,,,
5228,01/01/2001,,,
5229,01/01/2001,,,
5230,01/01/2001,,,
5231,01/01/2001,,,
5233,01/01/2001,,,
5234,01/01/2001,,,
5235,01/01/2001,,,
5236,01/01/2001,,,
5237,01/01/2001,,,
5238,01/01/2001,,,
5239,01/01/2001,,,
5240,15/04/2004,,,
5241,01/01/2001,,,
5242,01/01/2001,,,
5243,31/12/2001,,,
5244,01/01/2001,,,
5245,01/01/2001,,,
5246,01/01/2001,,,
5247,01/01/2001,,,
5248,01/01/2001,,,
5249,01/01/2001,,,
5250,01/01/2001,,,
5251,01/01/2001,,,
5252,01/01/2001,,,
5253,22/08/2002,,,
5254,23/08/2002,,,
5255,23/08/2002,,,
5256,01/01/2001,,,
5257,01/01/2001,,,
5258,01/01/2001,,,
5259,01/01/2001,,,
5260,01/01/2001,,,
5261,20/08/2002,,,
5262,01/01/2001,,,
5263,23/08/2002,,,
5264,23/08/2002,,,
5265,01/01/2001,,,
5266,23/08/2002,,,
5267,08/08/2002,,,
5268,01/01/2001,,,
5269,01/01/2001,,,
5270,01/01/2001,,,
5271,27/05/2002,,,
5272,23/08/2002,,,
5273,23/08/2002,,,
5274,28/08/2002,,,
5275,15/10/2002,,,
5276,23/08/2002,,,
5277,01/01/2001,,,
5278,20/08/2013,,,
5280,06/09/2013,,,
5281,08/08/2002,,,
5282,01/01/2001,,,
5283,08/08/2002,,,
5284,01/01/2001,,,
5286,01/01/2001,,,
5287,01/01/2001,,,
5288,09/08/2002,,,
5289,23/08/2002,,,
5290,02/01/2002,,,
5291,23/08/2002,,,
5292,23/08/2002,,,
5293,28/08/2002,,,
5294,01/01/2001,,,
5295,01/01/2001,,,
5296,01/01/2001,,,
5297,01/01/2001,,,
5298,01/01/2001,,,
5299,23/08/2002,,,
5300,01/01/2001,,,
5302,01/01/2001,,,
5303,23/08/2002,,,
5304,02/01/2002,,,
5305,23/08/2002,,,
5307,01/01/2001,,,
5308,01/01/2001,,,
5309,08/08/2002,,,
5310,23/08/2002,,,
5311,01/01/2001,,,
5312,01/01/2001,,,
5313,01/01/2001,,,
5314,23/08/2002,,,
5315,01/01/2001,,,
5316,01/01/2001,,,
5317,01/01/2001,,,
5318,21/08/2002,,,
5319,01/01/2001,,,
5320,01/01/2001,,,
5321,14/08/2002,,,
5322,27/08/2002,,,
5323,01/01/2001,,,
5324,01/01/2001,,,
5325,01/01/2001,,,
5326,01/01/2001,,,
5327,17/10/2002,,,
5328,20/08/2002,,,
5330,01/01/2001,,,
5331,26/08/2002,,,
5332,01/01/2001,,,
5333,26/08/2002,,,
5334,02/01/2002,,,
5335,27/08/2002,,,
5338,01/01/2001,,,
5339,01/01/2001,,,
5340,26/08/2002,,,
5341,01/01/2001,,,
5342,01/01/2001,,,
5343,26/08/2002,,,
5344,01/01/2001,,,
5345,01/01/2001,,,
5346,01/01/2001,,,
5348,01/01/2002,,,
5350,16/08/2002,,,
5351,23/08/2002,,,
5352,01/01/2001,,,
5353,02/01/2002,,,
5354,23/08/2002,,,
5355,23/08/2002,,,
5356,23/08/2002,,,
5357,23/08/2002,,,
5358,01/01/2001,,,
5359,01/01/2001,,,
5360,01/01/2001,,,
5361,01/01/2001,,,
5362,03/01/2002,,,
5363,23/08/2002,,,
5364,24/07/2002,,,
5365,23/08/2002,,,
5366,23/08/2002,,,
5367,01/01/2001,,,
5368,01/01/2001,,,
5369,01/01/2001,,,
5370,23/08/2002,,,
5371,23/08/2002,,,
5372,08/08/2002,,,
5373,15/10/2002,,,
5374,26/08/2002,,,
5375,01/01/2001,,,
5376,01/01/2001,,,
5377,01/01/2001,,,
5378,26/08/2002,,,
5379,01/01/2001,,,
5380,26/08/2002,,,
5381,26/08/2002,,,
5382,01/01/2001,,,
5383,01/01/2001,,,
5384,08/08/2002,,,
5385,01/01/2001,,,
5386,26/08/2002,,,
5387,26/08/2002,,,
5388,13/08/2002,,,
5389,01/01/2001,,,
5390,08/08/2002,,,
5391,01/01/2001,,,
5392,01/01/2001,,,
5393,26/08/2002,,,
5394,26/08/2002,,,
5395,26/08/2002,,,
5396,26/08/2002,,,
5397,26/08/2002,,,
5398,26/08/2002,,,
5399,01/01/2001,,,
5400,26/08/2002,,,
5401,01/01/2001,,,
5402,26/08/2002,,,
5403,01/01/2001,,,
5404,01/01/2001,,,
5405,01/01/2001,,,
5406,26/08/2002,,,
5407,01/01/2001,,,
5408,01/01/2001,,,
5409,01/01/2001,,,
5410,26/08/2002,,,
5411,01/01/2001,,,
5412,19/08/2002,,,
5413,01/01/2001,,,
5414,26/08/2002,,,
5415,26/08/2002,,,
5416,08/08/2002,,,
5417,27/08/2002,,,
5418,03/01/2002,,,
5419,01/01/2001,,,
5420,26/08/2002,,,
5421,01/01/2001,,,
5422,01/01/2001,,,
5423,03/01/2002,,,
5424,01/01/2001,,,
5425,23/08/2002,,,
5426,01/01/2001,,,
5427,01/01/2001,,,
5428,01/01/2001,,,
5429,01/01/2001,,,
5430,23/08/2002,,,
5431,01/01/2001,,,
5432,01/01/2001,,,
5433,26/08/2002,,,
5434,23/08/2002,,,
5435,01/01/2001,,,
5436,01/01/2001,,,
5437,01/01/2001,,,
5438,01/01/2001,,,
5439,27/08/2002,,,
5440,01/01/2001,,,
5441,01/01/2001,,,
5443,01/01/2001,,,
5444,01/01/2001,,,
5445,01/01/2001,,,
5446,01/01/2001,,,
5447,01/01/2001,,,
5448,02/01/2002,,,
5449,23/08/2002,,,
5450,31/12/2001,,,
5451,01/01/2001,,,
5452,26/08/2002,,,
5453,01/01/2001,,,
5454,23/08/2002,,,
5455,01/01/2001,,,
5456,01/01/2001,,,
5457,23/08/2002,,,
5458,01/01/2001,,,
5459,02/01/2002,,,
5460,28/08/2002,,,
5461,01/01/2001,,,
5462,01/01/2001,,,
5463,23/08/2002,,,
5464,23/08/2002,,,
5465,08/08/2002,,,
5466,01/01/2001,,,
5467,01/01/2001,,,
5468,01/01/2001,,,
5469,23/08/2002,,,
5471,01/01/2001,,,
5472,01/01/2001,,,
5473,01/01/2001,,,
5474,01/01/2001,,,
5475,01/01/2001,,,
5477,27/08/2002,,,
5478,04/06/2002,,,
5479,28/08/2002,,,
5480,27/08/2002,,,
5481,27/08/2002,,,
5482,24/05/2002,,,
5483,27/08/2002,,,
5484,27/08/2002,,,
5485,30/08/2002,,,
5486,23/05/2002,,,
5487,05/08/2008,,,
5488,30/08/2002,,,
5489,11/10/2002,,,
5490,11/09/2002,,,
5491,24/05/2002,,,
5492,23/05/2002,,,
5493,23/05/2002,,,
5494,23/05/2002,,,
5495,23/05/2002,,,
5496,28/05/2002,,,
5497,23/05/2002,,,
5498,23/05/2002,,,
5499,27/05/2002,,,
5500,27/05/2002,,,
5501,24/05/2002,,,
5502,27/08/2002,,,
5503,16/05/2002,,,
5504,27/05/2002,,,
5505,04/04/2003,,,
5506,24/05/2002,,,
5507,23/05/2002,,,
5508,02/10/2002,,,
5509,03/04/2003,,,
5510,23/09/2002,,,
5512,11/09/2002,,,
5513,31/03/2003,,,
5514,31/03/2003,,,
5515,31/03/2003,,,
5516,06/06/2003,,,
5517,18/07/2003,,,
5518,06/06/2003,,,
5519,25/09/2003,,,
5520,29/09/2003,,,
5521,26/09/2003,,,
5522,26/09/2003,,,
5523,29/09/2003,,,
5524,26/09/2003,,,
5525,23/10/2003,,,
5526,15/01/2004,,,
5527,09/03/2004,,,
5528,08/03/2004,,,
5529,08/03/2004,,,
5530,13/04/2004,,,
5531,14/06/2004,,,
5532,13/08/2004,,,
5533,28/07/2004,,,
5534,24/01/2005,,,
5535,21/01/2005,,,
5536,01/02/2005,,,
5537,16/02/2005,,,
5538,22/03/2005,,,
5539,15/04/2005,,,
5540,02/05/2005,,,
5541,02/05/2005,,,
5542,06/10/2005,,,
5543,27/02/2006,,,
5544,09/03/2006,,,
5545,10/04/2006,,,
5546,03/07/2006,,,
5547,30/06/2006,,,
5548,03/07/2006,,,
5549,03/07/2006,,,
5550,31/08/2006,,,
5551,20/09/2006,,,
5552,26/09/2006,,,
5553,01/11/2006,,,
5554,26/10/2006,,,
5555,06/11/2006,,,
5556,04/04/2007,,,
5557,08/12/2006,,,
5558,15/12/2006,,,
5559,26/02/2007,,,
5560,26/02/2007,,,
5561,26/02/2007,,,
5562,26/02/2007,,,
5563,26/02/2007,,,
5564,27/02/2007,,,
5565,13/04/2007,,,
5566,04/04/2007,,,
5567,30/05/2007,,,
5568,07/08/2007,,,
5569,17/07/2007,,,
5570,07/08/2007,,,
5571,19/10/2007,,,
5572,21/08/2007,,,
5573,14/09/2007,,,
5574,11/09/2007,,,
5575,16/10/2007,,,
5576,29/11/2007,,,
5577,19/12/2007,,,
5578,04/04/2008,,,
5579,29/01/2008,,,
5580,05/08/2008,,,
5581,10/09/2008,,,
5582,28/07/2008,,,
5583,25/07/2008,,,
5584,28/07/2008,,,
5585,16/01/2013,,,
5586,12/08/2008,,,
5587,13/08/2008,,,
5588,25/08/2008,,,
5589,15/09/2008,,,
5590,15/09/2008,,,
5591,10/10/2008,,,
5592,20/11/2008,,,
5593,14/04/2009,,,
5594,20/03/2009,,,
5595,01/04/2009,,,
5596,05/06/2009,,,
5597,31/07/2009,,,
5598,31/07/2009,,,
5599,31/07/2009,,,
5600,18/11/2009,,,
5601,03/03/2010,,,
5602,18/02/2010,,,
5603,18/02/2010,,,
5604,12/05/2010,,,
5605,25/06/2010,,,
5606,01/06/2012,,,
5607,26/07/2010,,,
5608,01/06/2012,,,
5609,09/08/2010,,,
5610,09/09/2010,,,
5611,12/06/2012,,,
5612,09/09/2010,,,
5613,03/03/2011,,,
5614,26/05/2011,,,
5615,14/09/2011,,,
5616,21/09/2011,,,
5617,13/09/2013,,,
5618,04/11/2011,,,
5619,04/11/2011,,,
5620,26/04/2012,,,
5621,19/06/2012,,,
5622,05/06/2012,,,
5623,12/07/2012,,,
5624,12/07/2012,,,
5625,12/07/2012,,,
5626,02/08/2012,,,
5627,10/10/2012,,,
5628,29/11/2013,,,
5629,15/11/2012,,,
5630,28/11/2012,,,
5631,07/12/2012,,,
5632,12/02/2013,,,
5633,13/03/2013,,,
5634,25/02/2013,,,
5635,07/03/2013,,,
5636,07/05/2013,,,
5637,09/09/2013,,,
5638,15/10/2013,,,
6001,02/01/2002,,,
6002,02/01/2002,,,
6003,02/01/2002,,,
6004,07/10/2002,,,
6005,02/01/2002,,,
6007,02/01/2002,,,
6008,02/01/2002,,,
6009,09/10/2002,,,
6010,02/01/2002,,,
6011,02/01/2002,,,
6012,02/01/2002,,,
6013,02/01/2002,,,
6014,02/01/2002,,,
6015,02/01/2002,,,
6016,02/01/2002,,,
6017,02/01/2002,,,
6018,02/01/2002,,,
6019,02/01/2002,,,
6020,03/01/2002,,,
6021,03/01/2002,,,
6022,03/01/2002,,,
6023,02/01/2002,,,
6024,02/01/2002,,,
6025,02/01/2002,,,
6026,03/01/2002,,,
6027,03/01/2002,,,
6028,09/10/2002,,,
6029,18/10/2002,,,
6030,17/10/2002,,,
6031,31/10/2002,,,
6032,03/01/2002,,,
6033,03/01/2002,,,
6034,02/01/2002,,,
6035,03/01/2002,,,
6036,03/01/2002,,,
6037,03/01/2002,,,
6038,02/01/2002,,,
6040,29/10/2002,,,
6041,29/10/2002,,,
6042,29/10/2002,,,
6043,17/10/2002,,,
6044,09/10/2002,,,
6045,08/10/2002,,,
6046,30/10/2002,,,
6047,28/03/2003,,,
6048,02/04/2003,,,
6049,27/11/2003,,,
6050,19/11/2003,,,
6051,18/11/2003,,,
6052,26/01/2004,,,
6053,03/02/2004,,,
6054,01/09/2004,,,
6055,25/10/2004,,,
6056,09/12/2004,,,
6057,31/01/2005,,,
6058,12/05/2005,,,
6059,14/10/2005,,,
6060,10/04/2006,,,
6061,27/02/2006,,,
6062,19/07/2006,,,
6063,05/10/2007,,,
6064,28/08/2007,,,
6065,22/04/2009,,,
6066,10/12/2008,,,
6067,29/03/2010,,,
6068,10/02/2010,,,
6069,29/08/2011,,,
6070,17/02/2012,,,
6071,23/07/2013,,,
6072,19/05/2014,,,
6073,27/10/2014,,,
6074,21/04/2016,,,
6075,21/04/2016,,,
6076,21/04/2016,,,
6077,21/04/2016,,,
6078,15/06/2016,,,
6079,11/04/2016,,,
6080,21/04/2016,,,
6081,15/06/2016,,,
6082,06/06/2016,,,
6083,29/06/2016,,,
6084,30/06/2016,,,
6085,05/08/2016,,,
6086,08/09/2016,,,
6087,16/08/2016,,,
6088,06/09/2016,,,
6089,07/09/2016,,,
6090,07/09/2016,,,
6091,07/09/2016,,,
6092,08/12/2016,,,
6093,01/02/2017,,,
6094,21/02/2017,,,
6095,07/03/2017,,,
6096,07/03/2017,,,
7001,19/10/2006,,,
7002,08/11/2006,,,
7003,23/01/2007,,,
7004,26/02/2007,,,
7005,29/10/2008,,,
7006,10/08/2007,,,
7007,26/09/2007,,,
7008,30/01/2008,,,
7009,12/08/2008,,,
7010,03/10/2008,,,
7011,26/08/2008,,,
7012,18/09/2008,,,
7013,18/09/2008,,,
7014,20/01/2009,,,
7015,10/10/2008,,,
7016,03/03/2009,,,
7017,06/08/2009,,,
7018,01/12/2010,,,
7019,19/11/2009,,,
7020,03/11/2009,,,
7021,19/11/2009,,,
7022,15/02/2010,,,
7023,08/03/2010,,,
7024,09/09/2010,,,
7025,10/12/2010,,,
7026,14/02/2011,,,
7027,23/03/2011,,,
7028,24/03/2011,,,
7029,24/05/2011,,,
7030,06/06/2011,,,
7031,22/09/2011,,,
7032,21/09/2011,,,
7033,31/01/2012,,,
7034,10/02/2012,,,
7035,12/01/2012,,,
7036,05/03/2012,,,
7037,14/06/2012,,,
7038,12/07/2012,,,
7039,19/12/2012,,,
7041,20/08/2013,,,
7042,12/12/2013,,,
7043,11/12/2013,,,
7044,06/01/2014,,,
7602,21/11/2008,,,
7603,05/08/2009,,,
7604,04/08/2010,,,
7605,14/02/2011,,,
7606,02/01/2012,,,
7607,26/01/2012,,,
7608,12/05/2014,,,
7609,21/06/2016,,,
7610,25/01/2017,,,
9001,03/01/2002,,,
9002,03/01/2002,,,
9003,03/01/2002,,,
9004,03/01/2002,,,
9005,03/01/2002,,,
9006,03/01/2002,,,
9007,03/01/2002,,,
9008,03/01/2002,,,
9009,03/01/2002,,,
9010,03/01/2002,,,
9011,03/01/2002,,,
9012,03/01/2002,,,
9013,03/01/2002,,,
9014,03/01/2002,,,
9015,03/01/2002,,,
9016,03/01/2002,,,
9017,03/01/2002,,,
9018,03/01/2002,,,
9019,03/01/2002,,,
9020,03/01/2002,,,
9021,07/01/2002,,,
9022,07/01/2002,,,
9023,07/01/2002,,,
9024,07/01/2002,,,
9025,07/01/2002,,,
9026,07/01/2002,,,
9027,07/01/2002,,,
9028,20/08/2002,,,
9029,07/01/2002,,,
9030,07/01/2002,,,
9031,07/01/2002,,,
9033,07/01/2002,,,
9034,07/01/2002,,,
9035,28/08/2002,,,
9037,07/01/2002,,,
9038,07/01/2002,,,
9039,12/08/2002,,,
9040,07/01/2002,,,
9041,07/01/2002,,,
9042,07/01/2002,,,
9043,07/01/2002,,,
9044,07/01/2002,,,
9045,07/01/2002,,,
9046,07/01/2002,,,
9047,07/01/2002,,,
9048,29/08/2002,,,
9049,07/01/2002,,,
9050,07/01/2002,,,
9051,26/11/2002,,,
9052,11/07/2003,,,
9053,05/08/2008,,,
9054,26/04/2012,,,
9055,08/03/2017,,,
9999,02/03/2011,,,